{
    "version": 1,
    "size": {
        "x": 64,
        "y": 64
    },
    "license": "CC-BY-SA-3.0",
    "copyright": "Taken from tgstation at commit https://github.com/tgstation/tgstation/commit/c3132671e1cb447b4ebf3ca61d71df5c7d78464e",
    "states": [
        {
            "name": "alien0",
            "delays": [
                [
                    0.1,
                    0.1,
                    0.2,
                    0.1,
                    0.1,
                    0.2,
                    0.1,
                    0.1,
                    0.1,
                    1,
                    0.1,
                    0.5
                ]
            ]
        },
        {
            "name": "alien1"
        },
        {
            "name": "alien2"
        },
        {
            "name": "alien3",
            "delays": [
                [
                    0.1,
                    0.05,
                    0.05,
                    0.1,
                    0.1,
                    0.1,
                    0.1,
                    0.1,
                    0.1,
                    0.1,
                    0.1,
                    0.1,
                    0.1,
                    0.1,
                    0.1,
                    0.1,
                    1,
                    0.1,
                    0.1,
                    0.1,
                    0.1,
                    0.6
                ]
            ]
        },
        {
            "name": "alienroyal0",
            "delays": [
                [
                    0.05,
                    0.05,
                    0.1,
                    0.1,
                    0.1,
                    0.075,
                    0.05,
                    0.2,
                    0.1,
                    0.1,
                    0.1,
                    0.1,
                    0.1,
                    0.1,
                    0.1,
                    0.075,
                    0.05,
                    0.2,
                    0.1,
                    0.1,
                    0.1,
                    0.1,
                    0.1,
                    0.05,
                    0.1,
                    1,
                    0.1,
                    1
                ]
            ]
        },
        {
            "name": "alienroyal1"
        },
        {
            "name": "alienroyal2"
        },
        {
            "name": "alienroyal3",
            "delays": [
                [
                    0.1,
                    0.1,
                    0.1,
                    0.1,
                    0.1,
                    0.1,
                    0.1,
                    0.1,
                    0.1,
                    0.1,
                    0.1,
                    0.1,
                    0.1,
                    0.1,
                    0.1,
                    0.1,
                    0.1,
                    0.1,
                    0.1,
                    0.1,
                    0.1,
                    1,
                    0.1,
                    0.1
                ]
            ]
        },
        {
            "name": "blob0",
            "delays": [
                [
                    0.2,
                    0.2,
                    0.05,
                    0.05
                ]
            ]
        },
        {
            "name": "blob1"
        },
        {
            "name": "blob2"
        },
        {
            "name": "blob3",
            "delays": [
                [
                    1,
                    1,
                    0.1,
                    1,
                    0.6,
                    1
                ]
            ]
        },
        {
            "name": "default0",
            "delays": [
                [
                    0.3,
                    0.1,
                    0.1,
                    0.1,
                    0.1,
                    1,
                    0.1,
                    0.1
                ]
            ]
        },
        {
            "name": "default1"
        },
        {
            "name": "default2"
        },
        {
            "name": "default3",
            "delays": [
                [
                    0.1,
                    0.1,
                    0.1,
                    0.1,
                    0.1,
                    0.1,
                    0.1,
                    0.05,
                    0.05,
                    0.1,
                    0.1,
                    0.1,
                    0.1,
                    0.1,
                    1,
                    0.1,
                    0.1
                ]
            ]
        },
        {
            "name": "guardian0",
            "delays": [
                [
                    0.12,
                    0.12,
                    0.12,
                    0.12,
                    0.12,
                    0.12,
                    0.12,
                    0.12,
                    0.12,
                    0.12,
                    0.12,
                    0.12
                ]
            ]
        },
        {
            "name": "guardian1"
        },
        {
            "name": "guardian2"
        },
        {
            "name": "guardian3",
            "delays": [
                [
                    0.15,
                    0.15,
                    0.15,
                    0.15,
                    0.15,
                    0.15,
                    0.15,
                    0.15,
                    0.15,
                    0.15,
                    0.15,
                    0.15
                ]
            ]
        },
        {
            "name": "holo0",
            "delays": [
                [
                    0.12,
                    0.12,
                    0.12,
                    0.12,
                    0.12,
                    0.12,
                    0.12,
                    0.12,
                    0.12,
                    0.12,
                    0.12,
                    0.12
                ]
            ]
        },
        {
            "name": "holo1"
        },
        {
            "name": "holo2"
        },
        {
            "name": "holo3",
            "delays": [
                [
                    0.15,
                    0.15,
                    0.15,
                    0.15,
                    0.15,
                    0.15,
                    0.15,
                    0.15,
                    0.15,
                    0.15,
                    0.15,
                    0.15
                ]
            ]
        },
        {
            "name": "lawyer0",
            "delays": [
                [
                    1,
                    0.05,
                    0.1,
                    0.05,
                    0.5,
                    0.1,
                    0.1
                ]
            ]
        },
        {
            "name": "lawyer1",
            "delays": [
                [
                    0.1,
                    0.1,
                    0.1,
                    0.1,
                    0.1,
                    0.1
                ]
            ]
        },
        {
            "name": "lawyer2",
            "delays": [
                [
                    0.1,
                    0.1,
                    0.1,
                    0.1,
                    0.1,
                    0.1
                ]
            ]
        },
        {
            "name": "lawyer3",
            "delays": [
                [
                    0.15,
                    0.15,
                    0.15,
                    0.15,
                    0.125,
                    0.1,
                    0.125,
                    0.15
                ]
            ]
        },
        {
            "name": "machine0",
            "delays": [
                [
                    0.1,
                    0.1,
                    0.1,
                    0.1,
                    0.1,
                    0.1,
                    0.1,
                    0.1,
                    0.1,
                    0.1,
                    0.1,
                    0.1,
                    0.1,
                    0.1,
                    0.1,
                    0.1,
                    0.1,
                    0.1,
                    0.1,
                    0.1,
                    1
                ]
            ]
        },
        {
            "name": "machine1"
        },
        {
            "name": "machine2"
        },
        {
            "name": "machine3",
            "delays": [
                [
                    0.1,
                    0.1,
                    0.1,
                    0.1,
                    0.1,
                    0.1
                ]
            ]
        },
        {
            "name": "robot0",
            "delays": [
                [
                    0.1,
                    0.1,
                    0.1,
                    0.1,
                    0.1,
                    0.1,
                    0.1,
                    0.1,
                    0.1,
                    0.1,
                    0.1,
                    0.1,
                    0.1,
                    0.1,
                    0.1,
                    0.1,
                    0.1,
                    0.1,
                    0.1,
                    0.1,
                    1
                ]
            ]
        },
        {
            "name": "robot1"
        },
        {
            "name": "robot2"
        },
        {
            "name": "robot3",
            "delays": [
                [
                    0.1,
                    0.1,
                    0.1,
                    0.1,
                    0.1,
                    0.1
                ]
            ]
        },
        {
            "name": "slime0",
            "delays": [
                [
                    0.2,
                    0.2,
                    0.05,
                    0.05,
                    0.2,
                    0.2,
                    0.05,
                    0.05,
                    0.2,
                    0.2,
                    0.2,
                    0.2,
                    0.2,
                    0.2,
                    0.2,
                    0.2,
                    0.2,
                    0.2,
                    0.2,
                    0.2,
                    0.2,
                    0.2,
                    0.2,
                    0.2
                ]
            ]
        },
        {
            "name": "slime1"
        },
        {
            "name": "slime2"
        },
        {
            "name": "slime3",
            "delays": [
                [
                    2,
                    0.2
                ]
            ]
        },
        {
            "name": "syndibot0",
            "delays": [
                [
                    0.1,
                    0.1,
                    0.05,
                    0.05,
                    0.1,
                    0.1,
                    0.1,
                    0.1,
                    0.1,
                    0.1,
                    0.1,
                    0.1,
                    0.1,
                    0.1,
                    0.1,
                    0.1,
                    0.1,
                    0.1,
                    0.1,
                    0.1,
                    1
                ]
            ]
        },
        {
            "name": "syndibot1"
        },
        {
            "name": "syndibot2"
        },
        {
            "name": "syndibot3",
            "delays": [
                [
                    0.1,
                    0.1,
                    0.1,
                    0.1,
                    0.1,
                    0.1
                ] 
            ]
        },
        {
            "name": "signlang0",
            "delays": [
                [
                    0.2,
                    0.2,
                    0.2,
                    0.5
                ]
            ]
        },
        {
            "name": "signlang1",
            "delays": [
                [
                    0.15,
                    0.15,
                    0.5,
                    0.1
                ]
            ]
        },
        {
            "name": "signlang2",
            "delays": [
                [
                    0.15,
                    0.15,
                    0.5,
                    0.1
                ]
            ]
        },
        {
            "name": "signlang3",
            "delays": [
                [
                    0.3,
                    0.3
                ]
            ]
        }
    ]
}
